…
    # install.packages("devtools")  # (if needed)
    devtools::install_github("jche/scmatch2")

# Quick demo of package

We generate a small toy dataset to illustrate the main methods of
interest:

``` r
set.seed( 4044440 )
dat <- gen_one_toy(nt = 5)
dat
#> # A tibble: 505 × 11
#>       id     X1    X2 Z        noise Y0_denoised    Y0 Y1_denoised    Y1     Y
#>    <int>  <dbl> <dbl> <lgl>    <dbl>       <dbl> <dbl>       <dbl> <dbl> <dbl>
#>  1     1 0.404  0.244 TRUE   0.131          5.05  5.18        7.00  7.13  7.13
#>  2     2 0.0330 0.223 TRUE   0.215          4.70  4.91        5.46  5.68  5.68
#>  3     3 0.863  0.838 TRUE  -0.00439        4.95  4.95       10.1  10.0  10.0 
#>  4     4 0.835  0.658 TRUE  -0.0932         4.93  4.84        9.41  9.32  9.32
#>  5     5 0.802  0.779 TRUE  -0.128          5.06  4.93        9.80  9.67  9.67
#>  6     6 0.653  0.227 FALSE  0.321          4.22  4.54        6.86  7.18  4.54
#>  7     7 0.805  0.135 FALSE -0.682          3.03  2.34        5.84  5.16  2.34
#>  8     8 0.802  0.386 FALSE  0.606          4.26  4.86        7.82  8.43  4.86
#>  9     9 0.709  0.137 FALSE -0.0348         3.51  3.48        6.05  6.01  3.48
#> 10    10 1.06   0.342 FALSE  0.0267         2.72  2.75        6.93  6.96  2.75
#> # ℹ 495 more rows
#> # ℹ 1 more variable: Y_denoised <dbl>
…
You can filter to only matches within the initial caliper:

``` r
result_table( mtch, feasible_only = TRUE )
#> # A tibble: 123 × 15
#>    id       X1    X2 Z       noise Y0_denoised    Y0 Y1_denoised    Y1     Y
#>    <chr> <dbl> <dbl> <lgl>   <dbl>       <dbl> <dbl>       <dbl> <dbl> <dbl>
#>  1 1     0.404 0.244 TRUE   0.131         5.05  5.18        7.00  7.13  7.13
#>  2 18    0.538 0.320 FALSE -0.0744        4.99  4.91        7.56  7.48  4.91
#>  3 39    0.596 0.245 FALSE -0.541         4.53  3.99        7.05  6.51  3.99
#>  4 57    0.532 0.254 FALSE -0.769         4.79  4.02        7.14  6.37  4.02
#>  5 86    0.585 0.129 FALSE -0.271         4.04  3.77        6.18  5.91  3.77
#>  6 100   0.538 0.352 FALSE  0.125         5.07  5.20        7.74  7.87  5.20
#>  7 120   0.502 0.286 FALSE -0.316         4.97  4.66        7.34  7.02  4.66
#>  8 124   0.578 0.181 FALSE  0.431         4.32  4.75        6.60  7.03  4.75
#>  9 133   0.578 0.154 FALSE  0.520         4.19  4.71        6.39  6.91  4.71
#> 10 140   0.578 0.419 FALSE -0.400         5.14  4.74        8.13  7.73  4.74
#> # ℹ 113 more rows
#> # ℹ 5 more variables: Y_denoised <dbl>, dist <dbl>, subclass <chr>, unit <chr>,
#> #   weights <dbl>
```
…
